{
  "extends": ["tslint:recommended", "tslint-react", "tslint-config-prettier", "tslint-react-hooks"],
  "rules": {
    "jsx-no-lambda": false,
    "no-var-requires": false,
    "react-hooks-nesting": "error"
  },
  "defaultSeverity": "warning",
  "linterOptions": {
    "exclude": [
      "config/**/*.js",
      "node_modules/**/*.ts",
      "coverage/lcov-report/*.js"
    ]
  }
}
